Title,Mod11,Check Digits,Name
83606686,3,XY,CRRN
83606691,4,XY,CRRN
83606696,8,XY,CRRN
83606699,6,XY,CRRN
83606704,8,XY,CRRN
83606708,9,XY,CRRN
83606712,7,XY,CRRN
83606716,8,XY,CRRN
83606720,6,XY,CRRN
83606723,4,XY,CRRN
83606727,5,XY,CRRN
83606731,3,XY,CRRN
83606735,4,XY,CRRN
83606740,5,XY,CRRN
83606744,6,XY,CRRN
83606748,7,XY,CRRN
83606752,5,XY,CRRN
83606756,6,XY,CRRN
83606760,4,XY,CRRN
83606763,2,XY,CRRN
83606768,6,XY,CRRN
83606770,9,XY,CRRN
83606775,2,XY,CRRN
83606779,3,XY,CRRN
83606783,1,XY,CRRN
83606787,2,XY,CRRN
83606791,0,XY,CRRN
83606796,4,XY,CRRN
83606800,3,XY,CRRN
83606803,1,XY,CRRN