UserID,vanityplateinquiry,workId
pdtstmvdls09,AP,USDC-COUNTER-1
pdtstmvdls09,AB,USDC-COUNTER-1
pdtstmvdls09,BC,USDC-COUNTER-1
pdtstmvdls09,GH,USDC-COUNTER-1
pdtstmvdls09,DL,USDC-COUNTER-1
pdtstmvdls09,LM,USDC-COUNTER-1
pdtstmvdls09,OP,USDC-COUNTER-1
pdtstmvdls09,QU,USDC-COUNTER-1
pdtstmvdls09,HK,USDC-COUNTER-1
pdtstmvdls09,RS,USDC-COUNTER-1
pdtstmvdls09,AP,USDC-COUNTER-1
pdtstmvdls09,AB,USDC-COUNTER-1
pdtstmvdls09,BC,USDC-COUNTER-1
pdtstmvdls09,GH,USDC-COUNTER-1
pdtstmvdls09,DL,USDC-COUNTER-1
pdtstmvdls09,LM,USDC-COUNTER-1
pdtstmvdls09,OP,USDC-COUNTER-1
pdtstmvdls09,QU,USDC-COUNTER-1
pdtstmvdls09,HK,USDC-COUNTER-1
pdtstmvdls09,RS,USDC-COUNTER-1
pdtstmvdls09,AP,USDC-COUNTER-1
pdtstmvdls09,AB,USDC-COUNTER-1
pdtstmvdls09,BC,USDC-COUNTER-1
pdtstmvdls09,GH,USDC-COUNTER-1
pdtstmvdls09,DL,USDC-COUNTER-1
pdtstmvdls09,LM,USDC-COUNTER-1
pdtstmvdls09,OP,USDC-COUNTER-1
pdtstmvdls09,QU,USDC-COUNTER-1
pdtstmvdls09,HK,USDC-COUNTER-1
pdtstmvdls09,RS,USDC-COUNTER-1
pdtstmvdls09,AP,USDC-COUNTER-1
pdtstmvdls09,AB,USDC-COUNTER-1
pdtstmvdls09,BC,USDC-COUNTER-1
pdtstmvdls09,GH,USDC-COUNTER-1
pdtstmvdls09,DL,USDC-COUNTER-1
pdtstmvdls09,LM,USDC-COUNTER-1
pdtstmvdls09,OP,USDC-COUNTER-1
pdtstmvdls09,QU,USDC-COUNTER-1
pdtstmvdls09,HK,USDC-COUNTER-1
pdtstmvdls09,RS,USDC-COUNTER-1
pdtstmvdls09,AP,USDC-COUNTER-1
pdtstmvdls09,AB,USDC-COUNTER-1
pdtstmvdls09,BC,USDC-COUNTER-1
pdtstmvdls09,GH,USDC-COUNTER-1
pdtstmvdls09,DL,USDC-COUNTER-1
pdtstmvdls09,LM,USDC-COUNTER-1
pdtstmvdls09,OP,USDC-COUNTER-1
pdtstmvdls09,QU,USDC-COUNTER-1
pdtstmvdls09,HK,USDC-COUNTER-1
pdtstmvdls09,RS,USDC-COUNTER-1
pdtstmvdls09,AP,USDC-COUNTER-1
pdtstmvdls09,AB,USDC-COUNTER-1
pdtstmvdls09,BC,USDC-COUNTER-1
pdtstmvdls09,GH,USDC-COUNTER-1
pdtstmvdls09,DL,USDC-COUNTER-1
pdtstmvdls09,LM,USDC-COUNTER-1
pdtstmvdls09,OP,USDC-COUNTER-1
pdtstmvdls09,QU,USDC-COUNTER-1
pdtstmvdls09,HK,USDC-COUNTER-1
pdtstmvdls09,RS,USDC-COUNTER-1
pdtstmvdls09,AP,USDC-COUNTER-1
pdtstmvdls09,AB,USDC-COUNTER-1
pdtstmvdls09,BC,USDC-COUNTER-1
pdtstmvdls09,GH,USDC-COUNTER-1
pdtstmvdls09,DL,USDC-COUNTER-1
pdtstmvdls09,LM,USDC-COUNTER-1
pdtstmvdls09,OP,USDC-COUNTER-1
pdtstmvdls09,QU,USDC-COUNTER-1
pdtstmvdls09,HK,USDC-COUNTER-1
pdtstmvdls09,RS,USDC-COUNTER-1
pdtstmvdls09,AP,USDC-COUNTER-1
pdtstmvdls09,AB,USDC-COUNTER-1
pdtstmvdls09,BC,USDC-COUNTER-1
pdtstmvdls09,GH,USDC-COUNTER-1
pdtstmvdls09,DL,USDC-COUNTER-1
pdtstmvdls09,LM,USDC-COUNTER-1
pdtstmvdls09,OP,USDC-COUNTER-1
pdtstmvdls09,QU,USDC-COUNTER-1
pdtstmvdls09,HK,USDC-COUNTER-1
pdtstmvdls09,RS,USDC-COUNTER-1
pdtstmvdls09,AP,USDC-COUNTER-1
pdtstmvdls09,AB,USDC-COUNTER-1
pdtstmvdls09,BC,USDC-COUNTER-1
pdtstmvdls09,GH,USDC-COUNTER-1
pdtstmvdls09,DL,USDC-COUNTER-1
pdtstmvdls09,LM,USDC-COUNTER-1
pdtstmvdls09,OP,USDC-COUNTER-1
pdtstmvdls09,QU,USDC-COUNTER-1
pdtstmvdls09,HK,USDC-COUNTER-1
pdtstmvdls09,RS,USDC-COUNTER-1
pdtstmvdls09,AP,USDC-COUNTER-1
pdtstmvdls09,AB,USDC-COUNTER-1
pdtstmvdls09,BC,USDC-COUNTER-1
pdtstmvdls09,GH,USDC-COUNTER-1
pdtstmvdls09,DL,USDC-COUNTER-1
pdtstmvdls09,LM,USDC-COUNTER-1
pdtstmvdls09,OP,USDC-COUNTER-1
pdtstmvdls09,QU,USDC-COUNTER-1
pdtstmvdls09,HK,USDC-COUNTER-1
pdtstmvdls09,RS,USDC-COUNTER-1