UserID,Suspense_WID,workId1
pdtstmvdls23,212985300000084,USDC-COUNTER-1
pdtstmvdls23,212985300000097,USDC-COUNTER-1
pdtstmvdls23,212985300000107,USDC-COUNTER-1
pdtstmvdls23,212985300000110,USDC-COUNTER-1
pdtstmvdls23,212985300000122,USDC-COUNTER-1
pdtstmvdls23,212985300000135,USDC-COUNTER-1
pdtstmvdls23,212985300000148,USDC-COUNTER-1
pdtstmvdls23,212985300000150,USDC-COUNTER-1
pdtstmvdls23,212985300000163,USDC-COUNTER-1
pdtstmvdls23,212985300000176,USDC-COUNTER-1
pdtstmvdls23,212985300000084,USDC-COUNTER-1
pdtstmvdls23,212985300000097,USDC-COUNTER-1
pdtstmvdls23,212985300000107,USDC-COUNTER-1
pdtstmvdls23,212985300000110,USDC-COUNTER-1
pdtstmvdls23,212985300000122,USDC-COUNTER-1
pdtstmvdls23,212985300000135,USDC-COUNTER-1
pdtstmvdls23,212985300000148,USDC-COUNTER-1
pdtstmvdls23,212985300000150,USDC-COUNTER-1
pdtstmvdls23,212985300000163,USDC-COUNTER-1
pdtstmvdls23,212985300000176,USDC-COUNTER-1
pdtstmvdls23,212985300000084,USDC-COUNTER-1
pdtstmvdls23,212985300000097,USDC-COUNTER-1
pdtstmvdls23,212985300000107,USDC-COUNTER-1
pdtstmvdls23,212985300000110,USDC-COUNTER-1
pdtstmvdls23,212985300000122,USDC-COUNTER-1
pdtstmvdls23,212985300000135,USDC-COUNTER-1
pdtstmvdls23,212985300000148,USDC-COUNTER-1
pdtstmvdls23,212985300000150,USDC-COUNTER-1
pdtstmvdls23,212985300000163,USDC-COUNTER-1
pdtstmvdls23,212985300000176,USDC-COUNTER-1
pdtstmvdls23,212985300000084,USDC-COUNTER-1
pdtstmvdls23,212985300000097,USDC-COUNTER-1
pdtstmvdls23,212985300000107,USDC-COUNTER-1
pdtstmvdls23,212985300000110,USDC-COUNTER-1
pdtstmvdls23,212985300000122,USDC-COUNTER-1
pdtstmvdls23,212985300000135,USDC-COUNTER-1
pdtstmvdls23,212985300000148,USDC-COUNTER-1
pdtstmvdls23,212985300000150,USDC-COUNTER-1
pdtstmvdls23,212985300000163,USDC-COUNTER-1
pdtstmvdls23,212985300000176,USDC-COUNTER-1
pdtstmvdls23,212985300000084,USDC-COUNTER-1
pdtstmvdls23,212985300000097,USDC-COUNTER-1
pdtstmvdls23,212985300000107,USDC-COUNTER-1
pdtstmvdls23,212985300000110,USDC-COUNTER-1
pdtstmvdls23,212985300000122,USDC-COUNTER-1
pdtstmvdls23,212985300000135,USDC-COUNTER-1
pdtstmvdls23,212985300000148,USDC-COUNTER-1
pdtstmvdls23,212985300000150,USDC-COUNTER-1
pdtstmvdls23,212985300000163,USDC-COUNTER-1
pdtstmvdls23,212985300000176,USDC-COUNTER-1
pdtstmvdls23,212985300000084,USDC-COUNTER-1
pdtstmvdls23,212985300000097,USDC-COUNTER-1
pdtstmvdls23,212985300000107,USDC-COUNTER-1
pdtstmvdls23,212985300000110,USDC-COUNTER-1
pdtstmvdls23,212985300000122,USDC-COUNTER-1
pdtstmvdls23,212985300000135,USDC-COUNTER-1
pdtstmvdls23,212985300000148,USDC-COUNTER-1
pdtstmvdls23,212985300000150,USDC-COUNTER-1
pdtstmvdls23,212985300000163,USDC-COUNTER-1
pdtstmvdls23,212985300000176,USDC-COUNTER-1
pdtstmvdls23,212985300000084,USDC-COUNTER-1
pdtstmvdls23,212985300000097,USDC-COUNTER-1
pdtstmvdls23,212985300000107,USDC-COUNTER-1
pdtstmvdls23,212985300000110,USDC-COUNTER-1
pdtstmvdls23,212985300000122,USDC-COUNTER-1
pdtstmvdls23,212985300000135,USDC-COUNTER-1
pdtstmvdls23,212985300000148,USDC-COUNTER-1
pdtstmvdls23,212985300000150,USDC-COUNTER-1
pdtstmvdls23,212985300000163,USDC-COUNTER-1
pdtstmvdls23,212985300000176,USDC-COUNTER-1
pdtstmvdls23,212985300000084,USDC-COUNTER-1
pdtstmvdls23,212985300000097,USDC-COUNTER-1
pdtstmvdls23,212985300000107,USDC-COUNTER-1
pdtstmvdls23,212985300000110,USDC-COUNTER-1
pdtstmvdls23,212985300000122,USDC-COUNTER-1
pdtstmvdls23,212985300000135,USDC-COUNTER-1
pdtstmvdls23,212985300000148,USDC-COUNTER-1
pdtstmvdls23,212985300000150,USDC-COUNTER-1
pdtstmvdls23,212985300000163,USDC-COUNTER-1
pdtstmvdls23,212985300000176,USDC-COUNTER-1
pdtstmvdls23,212985300000084,USDC-COUNTER-1
pdtstmvdls23,212985300000097,USDC-COUNTER-1
pdtstmvdls23,212985300000107,USDC-COUNTER-1
pdtstmvdls23,212985300000110,USDC-COUNTER-1
pdtstmvdls23,212985300000122,USDC-COUNTER-1
pdtstmvdls23,212985300000135,USDC-COUNTER-1
pdtstmvdls23,212985300000148,USDC-COUNTER-1
pdtstmvdls23,212985300000150,USDC-COUNTER-1
pdtstmvdls23,212985300000163,USDC-COUNTER-1
pdtstmvdls23,212985300000176,USDC-COUNTER-1
pdtstmvdls23,212985300000084,USDC-COUNTER-1
pdtstmvdls23,212985300000097,USDC-COUNTER-1
pdtstmvdls23,212985300000107,USDC-COUNTER-1
pdtstmvdls23,212985300000110,USDC-COUNTER-1
pdtstmvdls23,212985300000122,USDC-COUNTER-1
pdtstmvdls23,212985300000135,USDC-COUNTER-1
pdtstmvdls23,212985300000148,USDC-COUNTER-1
pdtstmvdls23,212985300000150,USDC-COUNTER-1
pdtstmvdls23,212985300000163,USDC-COUNTER-1
pdtstmvdls23,212985300000176,USDC-COUNTER-1