Title,Mod11,CheckDigit,TempTag,AgentNumber
83594485,9,PE,KHP2000,18000172
83594486,1,PE,KFY0495,18000172
83594487,4,PE,KFY0495,18000172
83594488,7,PE,KFY0495,18000172
83594489,0,PE,KFY0495,18000172
83594490,0,PE,KFY0495,18000172
83594491,2,PE,KFY0495,18000172
83594492,5,PE,KFY0495,18000172
83594493,8,PE,KFY0495,18000172
83594494,0,PE,KFY0495,18000172
83594495,3,PE,KFY0495,18000172
83594496,6,PE,KFY0495,18000172
83594497,9,PE,KFY0495,18000172
83594498,1,PE,KFY0495,18000172
83594499,4,PE,KFY0495,18000172
83594500,5,PE,KFY0495,18000172
83594501,8,PE,KFY0495,18000172
83594502,0,PE,KFY0495,18000172
83594503,3,PE,KFY0495,18000172
83594504,6,PE,KFY0495,18000172
83594505,9,PE,KFY0495,18000172
83594506,1,PE,KFY0495,18000172
83594507,4,PE,KFY0495,18000172
83594508,7,PE,KFY0495,18000172
83594509,0,PE,KFY0495,18000172
83594510,0,PE,KFY0495,18000172
83594511,2,PE,KFY0495,18000172
83594512,5,PE,KFY0495,18000172
83594513,8,PE,KFY0495,18000172
83594514,0,PE,KFY0495,18000172
83594515,3,PE,KFY0495,18000172
83594516,6,PE,KFY0495,18000172
83594517,9,PE,KFY0495,18000172
83594518,1,PE,KFY0495,18000172
83594519,4,PE,KFY0495,18000172
83594520,4,PE,KFY0495,18000172
83594521,7,PE,KFY0495,18000172
83594522,0,PE,KFY0495,18000172
83594523,2,PE,KFY0495,18000172
83594524,5,PE,KFY0495,18000172
83594525,8,PE,KFY0495,18000172
83594526,0,PE,KFY0495,18000172
83594527,3,PE,KFY0495,18000172
83594528,6,PE,KFY0495,18000172
83594529,9,PE,KFY0495,18000172
83594530,9,PE,KFY0495,18000172
83594531,1,PE,KFY0495,18000172
83594532,4,PE,KFY0495,18000172
83594533,7,PE,KFY0495,18000172
83594534,0,PE,KFY0495,18000172
83594535,2,PE,KFY0495,18000172
83594536,5,PE,KFY0495,18000172
83594537,8,PE,KFY0495,18000172
83594538,0,PE,KFY0495,18000172
83594539,3,PE,KFY0495,18000172
83594540,3,PE,KFY0495,18000172
83594541,6,PE,KFY0495,18000172
83594542,9,PE,KFY0495,18000172
83594543,1,PE,KFY0495,18000172
83594544,4,PE,KFY0495,18000172
83594545,7,PE,KFY0495,18000172
83594546,0,PE,KFY0495,18000172
83594547,2,PE,KFY0495,18000172
83594548,5,PE,KFY0495,18000172
83594549,8,PE,KFY0495,18000172
83594550,8,PE,KFY0495,18000172
83594551,0,PE,KFY0495,18000172
83594552,3,PE,KFY0495,18000172
83594553,6,PE,KFY0495,18000172
83594554,9,PE,KFY0495,18000172
83594555,1,PE,KFY0495,18000172
83594556,4,PE,KFY0495,18000172
83594557,7,PE,KFY0495,18000172
83594558,0,PE,KFY0495,18000172
83594559,2,PE,KFY0495,18000172
83594560,2,PE,KFY0495,18000172
83594561,5,PE,KFY0495,18000172
83594562,8,PE,KFY0495,18000172
83594563,0,PE,KFY0495,18000172
83594564,3,PE,KFY0495,18000172
83594565,6,PE,KFY0495,18000172
83594566,9,PE,KFY0495,18000172
83594567,1,PE,KFY0495,18000172
83594568,4,PE,KFY0495,18000172
83594569,7,PE,KFY0495,18000172
83594570,7,PE,KFY0495,18000172
83594571,0,PE,KFY0495,18000172
83594572,2,PE,KFY0495,18000172
83594573,5,PE,KFY0495,18000172
83594574,8,PE,KFY0495,18000172
83594575,0,PE,KFY0495,18000172
83594576,3,PE,KFY0495,18000172
83594577,6,PE,KFY0495,18000172
83594578,9,PE,KFY0495,18000172
83594579,1,PE,KFY0495,18000172
83594580,1,PE,KFY0495,18000172
83594581,4,PE,KFY0495,18000172
83594582,7,PE,KFY0495,18000172
83594583,0,PE,KFY0495,18000172
83594584,2,PE,KFY0495,18000172
83594585,5,PE,KFY0495,18000172
83594586,8,PE,KFY0495,18000172
83594587,0,PE,KFY0495,18000172
83594588,3,PE,KFY0495,18000172
83594589,6,PE,KFY0495,18000172
83594590,6,PE,KFY0495,18000172
83594591,9,PE,KFY0495,18000172
83594592,1,PE,KFY0495,18000172
83594593,4,PE,KFY0495,18000172
83594594,7,PE,KFY0495,18000172
83594595,0,PE,KFY0495,18000172
83594596,2,PE,KFY0495,18000172
83594597,5,PE,KFY0495,18000172
83594598,8,PE,KFY0495,18000172
83594599,0,PE,KFY0495,18000172
83594600,1,PE,KFY0495,18000172
83594601,4,PE,KFY0495,18000172
83594602,7,PE,KFY0495,18000172
83594603,0,PE,KFY0495,18000172
83594604,2,PE,KFY0495,18000172
83594605,5,PE,KFY0495,18000172
83594606,8,PE,KFY0495,18000172
83594607,0,PE,KFY0495,18000172
83594608,3,PE,KFY0495,18000172
83594609,6,PE,KFY0495,18000172
83594610,6,PE,KFY0495,18000172
83594611,9,PE,KFY0495,18000172
83594612,1,PE,KFY0495,18000172
83594613,4,PE,KFY0495,18000172
83594614,7,PE,KFY0495,18000172
83594615,0,PE,KFY0495,18000172
83594616,2,PE,KFY0495,18000172
83594617,5,PE,KFY0495,18000172
83594618,8,PE,KFY0495,18000172
83594619,0,PE,KFY0495,18000172
83594620,0,PE,KFY0495,18000172
83594621,3,PE,KFY0495,18000172
83594622,6,PE,KFY0495,18000172
83594623,9,PE,KFY0495,18000172
83594624,1,PE,KFY0495,18000172
83594625,4,PE,KFY0495,18000172
83594626,7,PE,KFY0495,18000172
83594627,0,PE,KFY0495,18000172
83594628,2,PE,KFY0495,18000172
83594629,5,PE,KFY0495,18000172
83594630,5,PE,KFY0495,18000172
83594631,8,PE,KFY0495,18000172
83594632,0,PE,KFY0495,18000172
83594633,3,PE,KFY0495,18000172
83594634,6,PE,KFY0495,18000172
83594635,9,PE,KFY0495,18000172
83594636,1,PE,KFY0495,18000172
83594637,4,PE,KFY0495,18000172
83594638,7,PE,KFY0495,18000172
83594639,0,PE,KFY0495,18000172
83594640,0,PE,KFY0495,18000172
83594641,2,PE,KFY0495,18000172
83594642,5,PE,KFY0495,18000172
83594643,8,PE,KFY0495,18000172
83594644,0,PE,KFY0495,18000172
83594645,3,PE,KFY0495,18000172
83594646,6,PE,KFY0495,18000172
83594647,9,PE,KFY0495,18000172
83594648,1,PE,KFY0495,18000172
83594649,4,PE,KFY0495,18000172
83594650,4,PE,KFY0495,18000172
83594651,7,PE,KFY0495,18000172
83594652,0,PE,KFY0495,18000172
83594653,2,PE,KFY0495,18000172
83594654,5,PE,KFY0495,18000172
83594655,8,PE,KFY0495,18000172
83594656,0,PE,KFY0495,18000172
83594657,3,PE,KFY0495,18000172
83594658,6,PE,KFY0495,18000172
83594659,9,PE,KFY0495,18000172
83594660,9,PE,KFY0495,18000172
83594661,1,PE,KFY0495,18000172
83594662,4,PE,KFY0495,18000172
83594663,7,PE,KFY0495,18000172
83594664,0,PE,KFY0495,18000172
83594665,2,PE,KFY0495,18000172
83594666,5,PE,KFY0495,18000172
83594667,8,PE,KFY0495,18000172
83594668,0,PE,KFY0495,18000172
83594669,3,PE,KFY0495,18000172
83594670,3,PE,KFY0495,18000172
83594671,6,PE,KFY0495,18000172
83594672,9,PE,KFY0495,18000172
83594673,1,PE,KFY0495,18000172
83594674,4,PE,KFY0495,18000172
83594675,7,PE,KFY0495,18000172
83594676,0,PE,KFY0495,18000172
83594677,2,PE,KFY0495,18000172
83594678,5,PE,KFY0495,18000172
83594679,8,PE,KFY0495,18000172
83594680,8,PE,KFY0495,18000172
83594681,0,PE,KFY0495,18000172
83594682,3,PE,KFY0495,18000172
83594683,6,PE,KFY0495,18000172
83594684,9,PE,KFY0495,18000172
83594685,1,PE,KFY0495,18000172
83594686,4,PE,KFY0495,18000172
83594687,7,PE,KFY0495,18000172
83594688,0,PE,KFY0495,18000172
83594689,2,PE,KFY0495,18000172
83594690,2,PE,KFY0495,18000172
83594691,5,PE,KFY0495,18000172
83594692,8,PE,KFY0495,18000172
83594693,0,PE,KFY0495,18000172
83594694,3,PE,KFY0495,18000172
83594695,6,PE,KFY0495,18000172
83594696,9,PE,KFY0495,18000172
83594697,1,PE,KFY0495,18000172
83594698,4,PE,KFY0495,18000172
83594699,7,PE,KFY0495,18000172
83594700,8,PE,KFY0495,18000172
83594701,0,PE,KFY0495,18000172
83594702,3,PE,KFY0495,18000172
83594703,6,PE,KFY0495,18000172
83594704,9,PE,KFY0495,18000172
83594705,1,PE,KFY0495,18000172
83594706,4,PE,KFY0495,18000172
83594707,7,PE,KFY0495,18000172
83594708,0,PE,KFY0495,18000172
83594709,2,PE,KFY0495,18000172
83594710,2,PE,KFY0495,18000172
83594711,5,PE,KFY0495,18000172
83594712,8,PE,KFY0495,18000172
83594713,0,PE,KFY0495,18000172
83594714,3,PE,KFY0495,18000172
83594715,6,PE,KFY0495,18000172
83594716,9,PE,KFY0495,18000172
83594717,1,PE,KFY0495,18000172
83594718,4,PE,KFY0495,18000172
83594719,7,PE,KFY0495,18000172
83594720,7,PE,KFY0495,18000172
83594721,0,PE,KFY0495,18000172
83594722,2,PE,KFY0495,18000172
83594723,5,PE,KFY0495,18000172
83594724,8,PE,KFY0495,18000172
83594725,0,PE,KFY0495,18000172
83594726,3,PE,KFY0495,18000172
83594727,6,PE,KFY0495,18000172
83594728,9,PE,KFY0495,18000172
83594729,1,PE,KFY0495,18000172
83594730,1,PE,KFY0495,18000172
83594731,4,PE,KFY0495,18000172
83594732,7,PE,KFY0495,18000172
83594733,0,PE,KFY0495,18000172
83594734,2,PE,KFY0495,18000172
83594735,5,PE,KFY0495,18000172
83594736,8,PE,KFY0495,18000172
83594737,0,PE,KFY0495,18000172
83594738,3,PE,KFY0495,18000172
83594739,6,PE,KFY0495,18000172
83594740,6,PE,KFY0495,18000172
83594741,9,PE,KFY0495,18000172
83594742,1,PE,KFY0495,18000172
83594743,4,PE,KFY0495,18000172
83594744,7,PE,KFY0495,18000172
83594745,0,PE,KFY0495,18000172
83594746,2,PE,KFY0495,18000172
83594747,5,PE,KFY0495,18000172
83594748,8,PE,KFY0495,18000172
83594749,0,PE,KFY0495,18000172
83594750,0,PE,KFY0495,18000172
83594751,3,PE,KFY0495,18000172
83594752,6,PE,KFY0495,18000172
83594753,9,PE,KFY0495,18000172
83594754,1,PE,KFY0495,18000172
83594755,4,PE,KFY0495,18000172
83594756,7,PE,KFY0495,18000172
83594757,0,PE,KFY0495,18000172
83594758,2,PE,KFY0495,18000172
83594759,5,PE,KFY0495,18000172
83594760,5,PE,KFY0495,18000172
83594761,8,PE,KFY0495,18000172
83594762,0,PE,KFY0495,18000172
83594763,3,PE,KFY0495,18000172
83594764,6,PE,KFY0495,18000172
83594765,9,PE,KFY0495,18000172
83594766,1,PE,KFY0495,18000172
83594767,4,PE,KFY0495,18000172
83594768,7,PE,KFY0495,18000172
83594769,0,PE,KFY0495,18000172
83594770,0,PE,KFY0495,18000172
83594771,2,PE,KFY0495,18000172
83594772,5,PE,KFY0495,18000172
83594773,8,PE,KFY0495,18000172
83594774,0,PE,KFY0495,18000172
83594775,3,PE,KFY0495,18000172
83594776,6,PE,KFY0495,18000172
83594777,9,PE,KFY0495,18000172
83594778,1,PE,KFY0495,18000172
83594779,4,PE,KFY0495,18000172
83594780,4,PE,KFY0495,18000172
83594781,7,PE,KFY0495,18000172
83594782,0,PE,KFY0495,18000172
83594783,2,PE,KFY0495,18000172
83594784,5,PE,KFY0495,18000172
83594785,8,PE,KFY0495,18000172
83594786,0,PE,KFY0495,18000172
83594787,3,PE,KFY0495,18000172
83594788,6,PE,KFY0495,18000172
83594789,9,PE,KFY0495,18000172
83594790,9,PE,KFY0495,18000172
83594791,1,PE,KFY0495,18000172
83594792,4,PE,KFY0495,18000172
83594793,7,PE,KFY0495,18000172
83594794,0,PE,KFY0495,18000172
83594795,2,PE,KFY0495,18000172
83594796,5,PE,KFY0495,18000172
83594797,8,PE,KFY0495,18000172
83594798,0,PE,KFY0495,18000172
83594799,3,PE,KFY0495,18000172
83594800,4,PE,KFY0495,18000172
83594801,7,PE,KFY0495,18000172
83594802,0,PE,KFY0495,18000172
83594803,2,PE,KFY0495,18000172
83594804,5,PE,KFY0495,18000172
83594805,8,PE,KFY0495,18000172
83594806,0,PE,KFY0495,18000172
83594807,3,PE,KFY0495,18000172
83594808,6,PE,KFY0495,18000172
83594809,9,PE,KFY0495,18000172
83594810,9,PE,KFY0495,18000172
83594811,1,PE,KFY0495,18000172
83594812,4,PE,KFY0495,18000172
83594813,7,PE,KFY0495,18000172
83594814,0,PE,KFY0495,18000172
83594815,2,PE,KFY0495,18000172
83594816,5,PE,KFY0495,18000172
83594817,8,PE,KFY0495,18000172
83594818,0,PE,KFY0495,18000172
83596065,4,PE,KFY0495,18000172
83596069,5,PE,KFY0495,18000172
83596070,5,PE,KFY0495,18000172
83596071,8,PE,KFY0495,18000172
83596073,3,PE,KFY0495,18000172
83596075,9,PE,KFY0495,18000172
83596076,1,PE,KFY0495,18000172
83596077,4,PE,KFY0495,18000172
83596078,7,PE,KFY0495,18000172
83596079,0,PE,KFY0495,18000172
83596080,0,PE,KFY0495,18000172
83596082,5,PE,KFY0495,18000172
83596083,8,PE,KFY0495,18000172
83596084,0,PE,KFY0495,18000172
83596085,3,PE,KFY0495,18000172
83596086,6,PE,KFY0495,18000172
83596087,9,PE,KFY0495,18000172
83596088,1,PE,KFY0495,18000172
83596090,4,PE,KFY0495,18000172
83596091,7,PE,KFY0495,18000172
83596092,0,PE,KFY0495,18000172
83596093,2,PE,KFY0495,18000172
83596095,8,PE,KFY0495,18000172
83596096,0,PE,KFY0495,18000172
83596097,3,PE,KFY0495,18000172
83596098,6,PE,KFY0495,18000172
83596099,9,PE,KFY0495,18000172
83596101,2,PE,KFY0495,18000172
83596102,5,PE,KFY0495,18000172
83596103,8,PE,KFY0495,18000172
83596104,0,PE,KFY0495,18000172
83596106,6,PE,KFY0495,18000172
83596107,9,PE,KFY0495,18000172
83596108,1,PE,KFY0495,18000172
83596110,4,PE,KFY0495,18000172
83596111,7,PE,KFY0495,18000172
83596113,2,PE,KFY0495,18000172
83596114,5,PE,KFY0495,18000172
83596115,8,PE,KFY0495,18000172
83596116,0,PE,KFY0495,18000172
83596117,3,PE,KFY0495,18000172
83596118,6,PE,KFY0495,18000172
83596119,9,PE,KFY0495,18000172
83596121,1,PE,KFY0495,18000172
83596122,4,PE,KFY0495,18000172
83596123,7,PE,KFY0495,18000172
83596124,0,PE,KFY0495,18000172
83596125,2,PE,KFY0495,18000172
83596126,5,PE,KFY0495,18000172
83596128,0,PE,KFY0495,18000172
83596129,3,PE,KFY0495,18000172
83596131,6,PE,KFY0495,18000172
83596132,9,PE,KFY0495,18000172
83596133,1,PE,KFY0495,18000172
83596135,7,PE,KFY0495,18000172
83596136,0,PE,KFY0495,18000172
83596137,2,PE,KFY0495,18000172
83596138,5,PE,KFY0495,18000172
83596139,8,PE,KFY0495,18000172
83596140,8,PE,KFY0495,18000172
83596142,3,PE,KFY0495,18000172
83596143,6,PE,KFY0495,18000172
83596144,9,PE,KFY0495,18000172
83596145,1,PE,KFY0495,18000172
83596146,4,PE,KFY0495,18000172
83596148,0,PE,KFY0495,18000172