Title,Mod11,CheckDigit
83600225,8,XY
83600229,9,XY
83600231,1,XY
83600237,8,XY
83600241,6,XY
83600248,5,XY
83600252,3,XY
83600259,2,XY
83600263,0,XY
83600267,1,XY
83600273,5,XY
83600276,3,XY
83600283,0,XY
83600288,3,XY
83600293,4,XY
83600298,8,XY
83600303,0,XY
83600307,0,XY
83600312,1,XY
83600317,5,XY
83600322,6,XY
83600327,0,XY
83600329,5,XY
83600333,3,XY
83600339,0,XY
83600347,9,XY
83600352,0,XY
83600356,0,XY
83600362,4,XY
83600367,8,XY
83600370,3,XY
83600375,7,XY
83600380,8,XY
83600383,6,XY
83600388,0,XY
83600393,0,XY
83600402,3,XY
83600404,9,XY
83600410,2,XY
83600414,3,XY