Title,Mod11,CheckDigit
83617480,6,PE
83617481,9,PE
83617484,7,PE
83617486,2,PE
83617487,5,PE
83617490,0,PE
83617491,3,PE
83617494,1,PE
83617496,7,PE
83617498,2,PE
83617500,6,PE
83617502,1,PE
83617503,4,PE
83617506,2,PE
83617508,8,PE
83617510,0,PE
83617514,1,PE
83617515,4,PE
83617517,0,PE
83617520,5,PE