Title,Mod11,CheckDigit,Add1,City,State,ZipCode
83657493,6,PE,200 sterling pkwy,MECHANICSBURG,PA,17050
83657495,1,PE,200 sterling pkwy,MECHANICSBURG,PA,17050
83657500,3,PE,200 sterling pkwy,MECHANICSBURG,PA,17050
83657503,1,PE,200 sterling pkwy,MECHANICSBURG,PA,17050
83657507,2,PE,200 sterling pkwy,MECHANICSBURG,PA,17050
83657510,8,PE,200 sterling pkwy,MECHANICSBURG,PA,17050
83657511,0,PE,200 sterling pkwy,MECHANICSBURG,PA,17050
83657512,3,PE,200 sterling pkwy,MECHANICSBURG,PA,17050
83657513,6,PE,200 sterling pkwy,MECHANICSBURG,PA,17050
83657514,9,PE,200 sterling pkwy,MECHANICSBURG,PA,17050
83657516,4,PE,200 sterling pkwy,MECHANICSBURG,PA,17050
83657519,2,PE,200 sterling pkwy,MECHANICSBURG,PA,17050
83657520,2,PE,200 sterling pkwy,MECHANICSBURG,PA,17050
83657522,8,PE,200 sterling pkwy,MECHANICSBURG,PA,17050
83657524,3,PE,200 sterling pkwy,MECHANICSBURG,PA,17050