Messenger,Messenger ID,Title,Purpose Code
03400,6,83595411,TF
03400,6,83595412,TF
03400,6,83595413,TF
03400,6,83595414,TF
03400,6,83595415,TF
03400,6,83595416,TF
03400,6,83595417,TF
03400,6,83595418,TF
03400,6,83595419,TF
03400,6,83595420,TF