Messenger,Messenger ID,Title,Purpose Code
03400,6,83595231,BF
03400,6,83595232,BF
03400,6,83595233,BF
03400,6,83595234,BF
03400,6,83595235,BF
03400,6,83595236,BF
03400,6,83595237,BF
03400,6,83595238,BF
03400,6,83595239,BF
03400,6,83595240,BF