VIN,Make,Body Type
MV3MKP0110RWID001,BMW,SDN
MV3MKP0110RWID002,BMW,SDN
MV3MKP0110RWID003,BMW,SDN
MV3MKP0110RWID004,BMW,SDN
MV3MKP0110RWID005,BMW,SDN
MV3MKP0110RWID006,BMW,SDN
MV3MKP0110RWID007,BMW,SDN
MV3MKP0110RWID008,BMW,SDN
MV3MKP0110RWID009,BMW,SDN
MV3MKP0110RWID010,BMW,SDN
MV3MKP0110RWID011,BMW,SDN
MV3MKP0110RWID012,BMW,SDN
MV3MKP0110RWID013,BMW,SDN
MV3MKP0110RWID014,BMW,SDN
MV3MKP0110RWID015,BMW,SDN
MV3MKP0110RWID016,BMW,SDN
MV3MKP0110RWID017,BMW,SDN
MV3MKP0110RWID018,BMW,SDN
MV3MKP0110RWID019,BMW,SDN
MV3MKP0110RWID020,BMW,SDN
MV3MKP0110RWID021,BMW,SDN
MV3MKP0110RWID022,BMW,SDN
MV3MKP0110RWID023,BMW,SDN
MV3MKP0110RWID024,BMW,SDN
MV3MKP0110RWID025,BMW,SDN
MV3MKP0110RWID026,BMW,SDN
MV3MKP0110RWID027,BMW,SDN
MV3MKP0110RWID028,BMW,SDN
MV3MKP0110RWID029,BMW,SDN
MV3MKP0110RWID030,BMW,SDN
MV3MKP0110RWID031,BMW,SDN
MV3MKP0110RWID032,BMW,SDN
MV3MKP0110RWID033,BMW,SDN
MV3MKP0110RWID034,BMW,SDN
MV3MKP0110RWID035,BMW,SDN
MV3MKP0110RWID036,BMW,SDN
MV3MKP0110RWID037,BMW,SDN
MV3MKP0110RWID038,BMW,SDN
MV3MKP0110RWID039,BMW,SDN
MV3MKP0110RWID040,BMW,SDN
MV3MKP0110RWID041,BMW,SDN
MV3MKP0110RWID042,BMW,SDN
MV3MKP0110RWID043,BMW,SDN
MV3MKP0110RWID044,BMW,SDN
MV3MKP0110RWID045,BMW,SDN
MV3MKP0110RWID046,BMW,SDN
MV3MKP0110RWID047,BMW,SDN
MV3MKP0110RWID048,BMW,SDN
MV3MKP0110RWID049,BMW,SDN
MV3MKP0110RWID050,BMW,SDN