UserID,Title,Mod11,Check Digits,Remit WID,Messenger,Messenger Mod11
PDTSTMVDLS49,83595725,0,PE,202530010000013,3400,6
PDTSTMVDLS49,83595726,3,PE,202530010000013,3400,6
PDTSTMVDLS49,83595727,6,PE,202530010000013,3400,6
PDTSTMVDLS49,83595728,9,PE,202530010000013,3400,6
PDTSTMVDLS49,83595729,1,PE,202530010000013,3400,6
PDTSTMVDLS49,83595730,1,PE,202530010000013,3400,6
PDTSTMVDLS49,83595731,4,PE,202530010000013,3400,6
PDTSTMVDLS49,83595732,7,PE,202530010000013,3400,6
PDTSTMVDLS49,83595733,0,PE,202530010000013,3400,6
PDTSTMVDLS49,83595734,2,PE,202530010000013,3400,6
PDTSTMVDLS49,83595735,5,PE,202530010000013,3400,6
