UserID,Title,Mod11,Check Digits,Remit WID,Messenger,Messenger Mod11
PDTSTMVDLS49,83603158,3,XY,202530010000013,3400,6
PDTSTMVDLS49,83603162,1,XY,202530010000013,3400,6
PDTSTMVDLS49,83603166,2,XY,202530010000013,3400,6
PDTSTMVDLS49,83603168,8,XY,202530010000013,3400,6
PDTSTMVDLS49,83603173,9,XY,202530010000013,3400,6
PDTSTMVDLS49,83603177,0,XY,202530010000013,3400,6
PDTSTMVDLS49,83603183,3,XY,202530010000013,3400,6
PDTSTMVDLS49,83603187,4,XY,202530010000013,3400,6
PDTSTMVDLS49,83603190,0,XY,202530010000013,3400,6
PDTSTMVDLS49,83603193,8,XY,202530010000013,3400,6
PDTSTMVDLS49,83603198,1,XY,202530010000013,3400,6
PDTSTMVDLS49,83603203,3,XY,202530010000013,3400,6
PDTSTMVDLS49,83603206,1,XY,202530010000013,3400,6
PDTSTMVDLS49,83603211,2,XY,202530010000013,3400,6
PDTSTMVDLS49,83603214,0,XY,202530010000013,3400,6
PDTSTMVDLS49,83603217,9,XY,202530010000013,3400,6
PDTSTMVDLS49,83603224,5,XY,202530010000013,3400,6
PDTSTMVDLS49,83603227,3,XY,202530010000013,3400,6
PDTSTMVDLS49,83603232,4,XY,202530010000013,3400,6
PDTSTMVDLS49,83603234,0,XY,202530010000013,3400,6

