UserID,Title,Mod11,Check Digits,remit WID,Messenger,Messenger Mod11
PDTSTMVDLS50,83608654,4,PE,202530010000013,3400,6
PDTSTMVDLS50,83608658,5,PE,202530010000013,3400,6
PDTSTMVDLS50,83608662,3,PE,202530010000013,3400,6
PDTSTMVDLS50,83608667,7,PE,202530010000013,3400,6
PDTSTMVDLS50,83608670,2,PE,202530010000013,3400,6
PDTSTMVDLS50,83608674,3,PE,202530010000013,3400,6
PDTSTMVDLS50,83608677,1,PE,202530010000013,3400,6
PDTSTMVDLS50,83608682,2,PE,202530010000013,3400,6
PDTSTMVDLS50,83608687,6,PE,202530010000013,3400,6
PDTSTMVDLS50,83608691,4,PE,202530010000013,3400,6
PDTSTMVDLS50,83608693,0,PE,202530010000013,3400,6
PDTSTMVDLS50,83608697,0,PE,202530010000013,3400,6
PDTSTMVDLS50,83608700,7,PE,202530010000013,3400,6
PDTSTMVDLS50,83608706,3,PE,202530010000013,3400,6
PDTSTMVDLS50,83608710,1,PE,202530010000013,3400,6
PDTSTMVDLS50,83608715,5,PE,202530010000013,3400,6
PDTSTMVDLS50,83608719,6,PE,202530010000013,3400,6
PDTSTMVDLS50,83608723,4,PE,202530010000013,3400,6
PDTSTMVDLS50,83608727,5,PE,202530010000013,3400,6
PDTSTMVDLS50,83608730,0,PE,202530010000013,3400,6
PDTSTMVDLS50,83608733,9,PE,202530010000013,3400,6
PDTSTMVDLS50,83608738,2,PE,202530010000013,3400,6
PDTSTMVDLS50,83608741,8,PE,202530010000013,3400,6
PDTSTMVDLS50,83608747,4,PE,202530010000013,3400,6
PDTSTMVDLS50,83608749,0,PE,202530010000013,3400,6
PDTSTMVDLS50,83608753,8,PE,202530010000013,3400,6
PDTSTMVDLS50,83608757,9,PE,202530010000013,3400,6
PDTSTMVDLS50,83608763,2,PE,202530010000013,3400,6
PDTSTMVDLS50,83608768,6,PE,202530010000013,3400,6
PDTSTMVDLS50,83608772,4,PE,202530010000013,3400,6
PDTSTMVDLS50,83608776,5,PE,202530010000013,3400,6
PDTSTMVDLS50,83608779,3,PE,202530010000013,3400,6
PDTSTMVDLS50,83608783,1,PE,202530010000013,3400,6
PDTSTMVDLS50,83608787,2,PE,202530010000013,3400,6
PDTSTMVDLS50,83608791,0,PE,202530010000013,3400,6
PDTSTMVDLS50,83608797,7,PE,202530010000013,3400,6
PDTSTMVDLS50,83608800,3,PE,202530010000013,3400,6
PDTSTMVDLS50,83608803,1,PE,202530010000013,3400,6
PDTSTMVDLS50,83608807,2,PE,202530010000013,3400,6
PDTSTMVDLS50,83608812,3,PE,202530010000013,3400,6
PDTSTMVDLS50,83608815,1,PE,202530010000013,3400,6
PDTSTMVDLS50,83608818,0,PE,202530010000013,3400,6

